   0.0000000000000000e+00   0.0000000000000000e+00   0.0000000000000000e+00   5.0000000000000000e+02
   1.0000000000000000e-03   2.5000000000000001e-04   5.0000000000000000e-01   5.0000000000000000e+02
   2.0000000000000000e-03   1.0000000000000000e-03   1.0000000000000000e+00   5.0000000000000000e+02
   3.0000000000000001e-03   2.2499999999999998e-03   1.4999999999999998e+00   5.0000000000000000e+02
   4.0000000000000001e-03   4.0000000000000001e-03   2.0000000000000000e+00   5.0000000000000000e+02
   5.0000000000000001e-03   6.2499999999999995e-03   2.5000000000000000e+00   5.0000000000000000e+02
   6.0000000000000001e-03   8.9999999999999993e-03   2.9999999999999996e+00   5.0000000000000000e+02
   7.0000000000000001e-03   1.2250000000000000e-02   3.5000000000000000e+00   5.0000000000000000e+02
   8.0000000000000002e-03   1.6000000000000000e-02   4.0000000000000000e+00   5.0000000000000000e+02
   9.0000000000000011e-03   2.0250000000000001e-02   4.5000000000000000e+00   5.0000000000000000e+02
   1.0000000000000000e-02   2.4999999999999998e-02   5.0000000000000000e+00   5.0000000000000000e+02
   1.0999999999999999e-02   3.0249999999999992e-02   5.4999999999999991e+00   5.0000000000000000e+02
   1.2000000000000000e-02   3.5999999999999997e-02   5.9999999999999991e+00   5.0000000000000000e+02
   1.3000000000000001e-02   4.2250000000000003e-02   6.5000000000000000e+00   5.0000000000000000e+02
   1.4000000000000000e-02   4.9000000000000002e-02   7.0000000000000000e+00   5.0000000000000000e+02
   1.4999999999999999e-02   5.6249999999999994e-02   7.5000000000000000e+00   5.0000000000000000e+02
   1.6000000000000000e-02   6.4000000000000001e-02   8.0000000000000000e+00   5.0000000000000000e+02
   1.7000000000000001e-02   7.2250000000000009e-02   8.5000000000000000e+00   5.0000000000000000e+02
   1.8000000000000002e-02   8.1000000000000003e-02   9.0000000000000000e+00   5.0000000000000000e+02
   1.9000000000000000e-02   9.0249999999999997e-02   9.4999999999999982e+00   5.0000000000000000e+02
   2.0000000000000000e-02   9.9999999999999992e-02   1.0000000000000000e+01   5.0000000000000000e+02
   2.1000000000000001e-02   1.1025000000000001e-01   1.0500000000000000e+01   5.0000000000000000e+02
   2.1999999999999999e-02   1.2099999999999997e-01   1.0999999999999998e+01   5.0000000000000000e+02
   2.3000000000000000e-02   1.3224999999999998e-01   1.1499999999999998e+01   5.0000000000000000e+02
   2.4000000000000000e-02   1.4399999999999999e-01   1.1999999999999998e+01   5.0000000000000000e+02
   2.5000000000000001e-02   1.5625000000000000e-01   1.2500000000000000e+01   5.0000000000000000e+02
   2.6000000000000002e-02   1.6900000000000001e-01   1.3000000000000000e+01   5.0000000000000000e+02
   2.7000000000000000e-02   1.8225000000000000e-01   1.3500000000000000e+01   5.0000000000000000e+02
   2.8000000000000001e-02   1.9600000000000001e-01   1.4000000000000000e+01   5.0000000000000000e+02
   2.9000000000000001e-02   2.1025000000000002e-01   1.4500000000000002e+01   5.0000000000000000e+02
   2.9999999999999999e-02   2.2499999999999998e-01   1.5000000000000000e+01   5.0000000000000000e+02
   3.1000000000000000e-02   2.4024999999999999e-01   1.5500000000000000e+01   5.0000000000000000e+02
   3.2000000000000001e-02   2.5600000000000001e-01   1.6000000000000000e+01   5.0000000000000000e+02
   3.3000000000000002e-02   2.7224999999999999e-01   1.6500000000000000e+01   5.0000000000000000e+02
   3.4000000000000002e-02   2.8900000000000003e-01   1.7000000000000000e+01   5.0000000000000000e+02
   3.5000000000000003e-02   3.0625000000000002e-01   1.7500000000000000e+01   5.0000000000000000e+02
   3.6000000000000004e-02   3.2400000000000001e-01   1.8000000000000000e+01   5.0000000000000000e+02
   3.6999999999999998e-02   3.4224999999999994e-01   1.8499999999999996e+01   5.0000000000000000e+02
   3.7999999999999999e-02   3.6099999999999999e-01   1.8999999999999996e+01   5.0000000000000000e+02
   3.9000000000000000e-02   3.8024999999999992e-01   1.9500000000000000e+01   5.0000000000000000e+02
   4.0000000000000001e-02   3.9999999999999997e-01   2.0000000000000000e+01   5.0000000000000000e+02
   4.1000000000000002e-02   4.2025000000000007e-01   2.0500000000000000e+01   5.0000000000000000e+02
   4.2000000000000003e-02   4.4100000000000006e-01   2.1000000000000000e+01   5.0000000000000000e+02
   4.3000000000000003e-02   4.6225000000000005e-01   2.1500000000000004e+01   5.0000000000000000e+02
   4.3999999999999997e-02   4.8399999999999987e-01   2.1999999999999996e+01   5.0000000000000000e+02
   4.4999999999999998e-02   5.0624999999999998e-01   2.2500000000000000e+01   5.0000000000000000e+02
   4.5999999999999999e-02   5.2899999999999991e-01   2.2999999999999996e+01   5.0000000000000000e+02
   4.7000000000000000e-02   5.5225000000000002e-01   2.3500000000000000e+01   5.0000000000000000e+02
   4.8000000000000001e-02   5.7599999999999996e-01   2.3999999999999996e+01   5.0000000000000000e+02
   4.9000000000000002e-02   6.0025000000000006e-01   2.4500000000000000e+01   5.0000000000000000e+02
   5.0000000000000003e-02   6.2500000000000000e-01   2.5000000000000000e+01   5.0000000000000000e+02
   5.1000000000000004e-02   6.5025000000000011e-01   2.5500000000000000e+01   5.0000000000000000e+02
   5.2000000000000005e-02   6.7600000000000005e-01   2.6000000000000000e+01   5.0000000000000000e+02
   5.2999999999999999e-02   7.0224999999999993e-01   2.6499999999999996e+01   5.0000000000000000e+02
   5.3999999999999999e-02   7.2899999999999998e-01   2.7000000000000000e+01   5.0000000000000000e+02
   5.5000000000000000e-02   7.5624999999999998e-01   2.7500000000000000e+01   5.0000000000000000e+02
   5.6000000000000001e-02   7.8400000000000003e-01   2.8000000000000000e+01   5.0000000000000000e+02
   5.7000000000000002e-02   8.1225000000000003e-01   2.8500000000000000e+01   5.0000000000000000e+02
   5.8000000000000003e-02   8.4100000000000008e-01   2.9000000000000004e+01   5.0000000000000000e+02
   5.9000000000000004e-02   8.7024999999999997e-01   2.9500000000000000e+01   5.0000000000000000e+02
   5.9999999999999998e-02   8.9999999999999991e-01   3.0000000000000000e+01   5.0000000000000000e+02
   6.0999999999999999e-02   9.3024999999999991e-01   3.0499999999999996e+01   5.0000000000000000e+02
   6.2000000000000000e-02   9.6099999999999997e-01   3.1000000000000000e+01   5.0000000000000000e+02
   6.3000000000000000e-02   9.9224999999999985e-01   3.1499999999999996e+01   5.0000000000000000e+02
   6.4000000000000001e-02   1.0240000000000000e+00   3.2000000000000000e+01   5.0000000000000000e+02
   6.5000000000000002e-02   1.0562499999999999e+00   3.2500000000000000e+01   5.0000000000000000e+02
   6.6000000000000003e-02   1.0890000000000000e+00   3.3000000000000000e+01   5.0000000000000000e+02
   6.7000000000000004e-02   1.1222500000000000e+00   3.3500000000000000e+01   5.0000000000000000e+02
   6.8000000000000005e-02   1.1560000000000001e+00   3.4000000000000000e+01   5.0000000000000000e+02
   6.9000000000000006e-02   1.1902500000000000e+00   3.4500000000000000e+01   5.0000000000000000e+02
   7.0000000000000007e-02   1.2250000000000001e+00   3.5000000000000000e+01   5.0000000000000000e+02
   7.1000000000000008e-02   1.2602500000000001e+00   3.5500000000000000e+01   5.0000000000000000e+02
   7.2000000000000008e-02   1.2960000000000000e+00   3.6000000000000000e+01   5.0000000000000000e+02
   7.2999999999999995e-02   1.3322499999999997e+00   3.6500000000000000e+01   5.0000000000000000e+02
   7.3999999999999996e-02   1.3689999999999998e+00   3.6999999999999993e+01   5.0000000000000000e+02
   7.4999999999999997e-02   1.4062500000000000e+00   3.7500000000000000e+01   5.0000000000000000e+02
   7.5999999999999998e-02   1.4440000000000000e+00   3.7999999999999993e+01   5.0000000000000000e+02
   7.6999999999999999e-02   1.4822499999999998e+00   3.8500000000000000e+01   5.0000000000000000e+02
   7.8000000000000000e-02   1.5209999999999997e+00   3.9000000000000000e+01   5.0000000000000000e+02
   7.9000000000000001e-02   1.5602499999999999e+00   3.9500000000000000e+01   5.0000000000000000e+02
   8.0000000000000002e-02   1.5999999999999999e+00   4.0000000000000000e+01   5.0000000000000000e+02
   8.1000000000000003e-02   1.6402500000000000e+00   4.0499999999999993e+01   5.0000000000000000e+02
   8.2000000000000003e-02   1.6810000000000003e+00   4.1000000000000000e+01   5.0000000000000000e+02
   8.3000000000000004e-02   1.7222500000000001e+00   4.1500000000000000e+01   5.0000000000000000e+02
   8.4000000000000005e-02   1.7640000000000002e+00   4.2000000000000000e+01   5.0000000000000000e+02
   8.5000000000000006e-02   1.8062499999999999e+00   4.2500000000000000e+01   5.0000000000000000e+02
   8.6000000000000007e-02   1.8490000000000002e+00   4.3000000000000007e+01   5.0000000000000000e+02
   8.7000000000000008e-02   1.8922500000000002e+00   4.3500000000000000e+01   5.0000000000000000e+02
   8.7999999999999995e-02   1.9359999999999995e+00   4.3999999999999993e+01   5.0000000000000000e+02
   8.8999999999999996e-02   1.9802500000000001e+00   4.4500000000000000e+01   5.0000000000000000e+02
   8.9999999999999997e-02   2.0249999999999999e+00   4.5000000000000000e+01   5.0000000000000000e+02
   9.0999999999999998e-02   2.0702499999999997e+00   4.5499999999999993e+01   5.0000000000000000e+02
   9.1999999999999998e-02   2.1159999999999997e+00   4.5999999999999993e+01   5.0000000000000000e+02
   9.2999999999999999e-02   2.1622500000000002e+00   4.6500000000000000e+01   5.0000000000000000e+02
   9.4000000000000000e-02   2.2090000000000001e+00   4.7000000000000000e+01   5.0000000000000000e+02
   9.5000000000000001e-02   2.2562499999999996e+00   4.7500000000000000e+01   5.0000000000000000e+02
   9.6000000000000002e-02   2.3039999999999998e+00   4.7999999999999993e+01   5.0000000000000000e+02
   9.7000000000000003e-02   2.3522500000000002e+00   4.8500000000000000e+01   5.0000000000000000e+02
   9.8000000000000004e-02   2.4010000000000002e+00   4.9000000000000000e+01   5.0000000000000000e+02
   9.9000000000000005e-02   2.4502500000000000e+00   4.9500000000000000e+01   5.0000000000000000e+02
   1.0000000000000001e-01   2.5000000000000000e+00   5.0000000000000000e+01   5.0000000000000000e+02
   1.0100000000000001e-01   2.5502500000000006e+00   5.0500000000000007e+01   5.0000000000000000e+02
   1.0200000000000001e-01   2.6010000000000004e+00   5.1000000000000000e+01   5.0000000000000000e+02
   1.0300000000000001e-01   2.6522500000000004e+00   5.1500000000000000e+01   5.0000000000000000e+02
   1.0400000000000001e-01   2.7040000000000002e+00   5.2000000000000000e+01   5.0000000000000000e+02
   1.0500000000000001e-01   2.7562500000000005e+00   5.2500000000000007e+01   5.0000000000000000e+02
   1.0600000000000001e-01   2.8090000000000006e+00   5.3000000000000007e+01   5.0000000000000000e+02
   1.0700000000000001e-01   2.8622500000000004e+00   5.3500000000000000e+01   5.0000000000000000e+02
   1.0800000000000001e-01   2.9159999999999999e+00   5.4000000000000000e+01   5.0000000000000000e+02
   1.0900000000000001e-01   2.9702500000000009e+00   5.4500000000000007e+01   5.0000000000000000e+02
   1.1000000000000001e-01   3.0250000000000008e+00   5.5000000000000007e+01   5.0000000000000000e+02
   1.1100000000000002e-01   3.0802500000000008e+00   5.5500000000000007e+01   5.0000000000000000e+02
   1.1200000000000002e-01   3.1360000000000010e+00   5.6000000000000000e+01   5.0000000000000000e+02
   1.1300000000000000e-01   3.1922500000000000e+00   5.6500000000000000e+01   5.0000000000000000e+02
   1.1400000000000000e-01   3.2490000000000001e+00   5.7000000000000000e+01   5.0000000000000000e+02
   1.1500000000000000e-01   3.3062499999999999e+00   5.7500000000000000e+01   5.0000000000000000e+02
   1.1600000000000001e-01   3.3640000000000003e+00   5.8000000000000007e+01   5.0000000000000000e+02
   1.1700000000000001e-01   3.4222500000000005e+00   5.8500000000000000e+01   5.0000000000000000e+02
   1.1800000000000001e-01   3.4809999999999999e+00   5.9000000000000000e+01   5.0000000000000000e+02
   1.1900000000000001e-01   3.5402500000000003e+00   5.9500000000000000e+01   5.0000000000000000e+02
   1.2000000000000001e-01   3.6000000000000010e+00   6.0000000000000007e+01   5.0000000000000000e+02
   1.2100000000000001e-01   3.6602500000000009e+00   6.0500000000000007e+01   5.0000000000000000e+02
   1.2200000000000001e-01   3.7210000000000001e+00   6.1000000000000000e+01   5.0000000000000000e+02
   1.2300000000000001e-01   3.7822500000000003e+00   6.1500000000000000e+01   5.0000000000000000e+02
   1.2400000000000001e-01   3.8440000000000012e+00   6.2000000000000007e+01   5.0000000000000000e+02
   1.2500000000000000e-01   3.9062500000000000e+00   6.2500000000000000e+01   5.0000000000000000e+02
   1.2600000000000000e-01   3.9689999999999994e+00   6.2999999999999993e+01   5.0000000000000000e+02
   1.2700000000000000e-01   4.0322499999999994e+00   6.3499999999999993e+01   5.0000000000000000e+02
   1.2800000000000000e-01   4.0960000000000001e+00   6.4000000000000000e+01   5.0000000000000000e+02
   1.2900000000000000e-01   4.1602500000000004e+00   6.4500000000000000e+01   5.0000000000000000e+02
   1.3000000000000000e-01   4.2249999999999996e+00   6.5000000000000000e+01   5.0000000000000000e+02
   1.3100000000000001e-01   4.2902500000000003e+00   6.5500000000000000e+01   5.0000000000000000e+02
   1.3200000000000001e-01   4.3559999999999999e+00   6.6000000000000000e+01   5.0000000000000000e+02
   1.3300000000000001e-01   4.4222500000000000e+00   6.6500000000000000e+01   5.0000000000000000e+02
   1.3400000000000001e-01   4.4889999999999999e+00   6.7000000000000000e+01   5.0000000000000000e+02
   1.3500000000000001e-01   4.5562500000000004e+00   6.7500000000000000e+01   5.0000000000000000e+02
   1.3600000000000001e-01   4.6240000000000006e+00   6.8000000000000000e+01   5.0000000000000000e+02
   1.3700000000000001e-01   4.6922500000000005e+00   6.8500000000000000e+01   5.0000000000000000e+02
   1.3800000000000001e-01   4.7610000000000001e+00   6.9000000000000000e+01   5.0000000000000000e+02
   1.3900000000000001e-01   4.8302500000000004e+00   6.9500000000000000e+01   5.0000000000000000e+02
   1.4000000000000001e-01   4.9000000000000004e+00   7.0000000000000000e+01   5.0000000000000000e+02
   1.4100000000000001e-01   4.9702500000000009e+00   7.0500000000000000e+01   5.0000000000000000e+02
   1.4200000000000002e-01   5.0410000000000004e+00   7.1000000000000000e+01   5.0000000000000000e+02
   1.4300000000000002e-01   5.1122500000000004e+00   7.1500000000000000e+01   5.0000000000000000e+02
   1.4400000000000002e-01   5.1840000000000002e+00   7.2000000000000000e+01   5.0000000000000000e+02
   1.4500000000000002e-01   5.2562500000000005e+00   7.2500000000000000e+01   5.0000000000000000e+02
   1.4600000000000002e-01   5.3290000000000015e+00   7.3000000000000000e+01   5.0000000000000000e+02
   1.4700000000000002e-01   5.4022500000000013e+00   7.3500000000000014e+01   5.0000000000000000e+02
   1.4800000000000002e-01   5.4760000000000018e+00   7.4000000000000014e+01   5.0000000000000000e+02
   1.4900000000000002e-01   5.5502500000000019e+00   7.4500000000000000e+01   5.0000000000000000e+02
   1.5000000000000002e-01   5.6250000000000009e+00   7.5000000000000000e+01   5.0000000000000000e+02
   1.5100000000000002e-01   5.7002500000000005e+00   7.5500000000000000e+01   5.0000000000000000e+02
   1.5200000000000002e-01   5.7760000000000016e+00   7.6000000000000014e+01   5.0000000000000000e+02
   1.5300000000000002e-01   5.8522500000000015e+00   7.6500000000000014e+01   5.0000000000000000e+02
   1.5400000000000003e-01   5.9290000000000020e+00   7.7000000000000000e+01   5.0000000000000000e+02
   1.5500000000000003e-01   6.0062500000000014e+00   7.7500000000000014e+01   5.0000000000000000e+02
   1.5600000000000003e-01   6.0840000000000023e+00   7.8000000000000014e+01   5.0000000000000000e+02
   1.5700000000000000e-01   6.1622500000000002e+00   7.8499999999999986e+01   5.0000000000000000e+02
   1.5800000000000000e-01   6.2409999999999997e+00   7.9000000000000000e+01   5.0000000000000000e+02
   1.5900000000000000e-01   6.3202500000000006e+00   7.9500000000000000e+01   5.0000000000000000e+02
   1.6000000000000000e-01   6.3999999999999995e+00   8.0000000000000000e+01   5.0000000000000000e+02
   1.6100000000000000e-01   6.4802500000000007e+00   8.0500000000000000e+01   5.0000000000000000e+02
   1.6200000000000001e-01   6.5609999999999999e+00   8.0999999999999986e+01   5.0000000000000000e+02
   1.6300000000000001e-01   6.6422500000000007e+00   8.1500000000000000e+01   5.0000000000000000e+02
   1.6400000000000001e-01   6.7240000000000011e+00   8.2000000000000000e+01   5.0000000000000000e+02
   1.6500000000000001e-01   6.8062500000000004e+00   8.2500000000000000e+01   5.0000000000000000e+02
   1.6600000000000001e-01   6.8890000000000002e+00   8.3000000000000000e+01   5.0000000000000000e+02
   1.6700000000000001e-01   6.9722499999999998e+00   8.3499999999999986e+01   5.0000000000000000e+02
   1.6800000000000001e-01   7.0560000000000009e+00   8.4000000000000000e+01   5.0000000000000000e+02
   1.6900000000000001e-01   7.1402500000000009e+00   8.4500000000000000e+01   5.0000000000000000e+02
   1.7000000000000001e-01   7.2249999999999996e+00   8.5000000000000000e+01   5.0000000000000000e+02
   1.7100000000000001e-01   7.3102500000000008e+00   8.5500000000000000e+01   5.0000000000000000e+02
   1.7200000000000001e-01   7.3960000000000008e+00   8.6000000000000014e+01   5.0000000000000000e+02
   1.7300000000000001e-01   7.4822500000000014e+00   8.6500000000000000e+01   5.0000000000000000e+02
   1.7400000000000002e-01   7.5690000000000008e+00   8.7000000000000000e+01   5.0000000000000000e+02
   1.7500000000000002e-01   7.6562500000000009e+00   8.7500000000000000e+01   5.0000000000000000e+02
   1.7600000000000002e-01   7.7440000000000007e+00   8.8000000000000000e+01   5.0000000000000000e+02
   1.7700000000000002e-01   7.8322500000000010e+00   8.8500000000000014e+01   5.0000000000000000e+02
   1.7800000000000002e-01   7.9210000000000012e+00   8.9000000000000000e+01   5.0000000000000000e+02
   1.7900000000000002e-01   8.0102500000000010e+00   8.9500000000000000e+01   5.0000000000000000e+02
   1.8000000000000002e-01   8.1000000000000014e+00   9.0000000000000014e+01   5.0000000000000000e+02
   1.8100000000000002e-01   8.1902500000000007e+00   9.0500000000000000e+01   5.0000000000000000e+02
   1.8200000000000000e-01   8.2809999999999988e+00   9.0999999999999986e+01   5.0000000000000000e+02
   1.8300000000000000e-01   8.3722499999999993e+00   9.1500000000000000e+01   5.0000000000000000e+02
   1.8400000000000000e-01   8.4639999999999986e+00   9.1999999999999986e+01   5.0000000000000000e+02
   1.8500000000000000e-01   8.5562499999999986e+00   9.2500000000000000e+01   5.0000000000000000e+02
   1.8600000000000000e-01   8.6490000000000009e+00   9.3000000000000000e+01   5.0000000000000000e+02
   1.8700000000000000e-01   8.7422499999999985e+00   9.3499999999999986e+01   5.0000000000000000e+02
   1.8800000000000000e-01   8.8360000000000003e+00   9.4000000000000000e+01   5.0000000000000000e+02
   1.8900000000000000e-01   8.9302499999999991e+00   9.4499999999999986e+01   5.0000000000000000e+02
   1.9000000000000000e-01   9.0249999999999986e+00   9.5000000000000000e+01   5.0000000000000000e+02
   1.9100000000000000e-01   9.1202500000000004e+00   9.5500000000000000e+01   5.0000000000000000e+02
   1.9200000000000000e-01   9.2159999999999993e+00   9.5999999999999986e+01   5.0000000000000000e+02
   1.9300000000000000e-01   9.3122500000000006e+00   9.6500000000000000e+01   5.0000000000000000e+02
   1.9400000000000001e-01   9.4090000000000007e+00   9.7000000000000000e+01   5.0000000000000000e+02
   1.9500000000000001e-01   9.5062499999999996e+00   9.7500000000000000e+01   5.0000000000000000e+02
   1.9600000000000001e-01   9.6040000000000010e+00   9.8000000000000000e+01   5.0000000000000000e+02
   1.9700000000000001e-01   9.7022499999999994e+00   9.8499999999999986e+01   5.0000000000000000e+02
   1.9800000000000001e-01   9.8010000000000002e+00   9.9000000000000000e+01   5.0000000000000000e+02
   1.9900000000000001e-01   9.9002500000000015e+00   9.9500000000000000e+01   5.0000000000000000e+02
   2.0000000000000001e-01   1.0000000000000000e+01   1.0000000000000000e+02   5.0000000000000000e+02
   2.0100000000000001e-01   1.0100000000000000e+01   1.0000000000000000e+02   0.0000000000000000e+00
   2.0200000000000001e-01   1.0199999999999999e+01   1.0000000000000000e+02   0.0000000000000000e+00
   2.0300000000000001e-01   1.0300000000000001e+01   1.0000000000000000e+02   0.0000000000000000e+00
   2.0400000000000001e-01   1.0400000000000000e+01   1.0000000000000000e+02   0.0000000000000000e+00
   2.0500000000000002e-01   1.0500000000000000e+01   1.0000000000000000e+02   0.0000000000000000e+00
   2.0600000000000002e-01   1.0600000000000000e+01   1.0000000000000000e+02   0.0000000000000000e+00
   2.0700000000000002e-01   1.0699999999999999e+01   1.0000000000000000e+02   0.0000000000000000e+00
   2.0800000000000002e-01   1.0800000000000001e+01   1.0000000000000000e+02   0.0000000000000000e+00
   2.0900000000000002e-01   1.0900000000000000e+01   1.0000000000000000e+02   0.0000000000000000e+00
   2.1000000000000002e-01   1.1000000000000000e+01   1.0000000000000000e+02   0.0000000000000000e+00
   2.1100000000000002e-01   1.1100000000000000e+01   1.0000000000000000e+02   0.0000000000000000e+00
   2.1200000000000002e-01   1.1199999999999999e+01   1.0000000000000000e+02   0.0000000000000000e+00
   2.1300000000000002e-01   1.1300000000000001e+01   1.0000000000000000e+02   0.0000000000000000e+00
   2.1400000000000002e-01   1.1400000000000000e+01   1.0000000000000000e+02   0.0000000000000000e+00
   2.1500000000000002e-01   1.1500000000000000e+01   1.0000000000000000e+02   0.0000000000000000e+00
   2.1600000000000003e-01   1.1600000000000000e+01   1.0000000000000000e+02   0.0000000000000000e+00
   2.1700000000000003e-01   1.1699999999999999e+01   1.0000000000000000e+02   0.0000000000000000e+00
   2.1800000000000003e-01   1.1800000000000001e+01   1.0000000000000000e+02   0.0000000000000000e+00
   2.1900000000000000e-01   1.1900000000000000e+01   1.0000000000000000e+02   0.0000000000000000e+00
   2.2000000000000000e-01   1.2000000000000000e+01   1.0000000000000000e+02   0.0000000000000000e+00
   2.2100000000000000e-01   1.2100000000000000e+01   1.0000000000000000e+02   0.0000000000000000e+00
   2.2200000000000000e-01   1.2199999999999999e+01   1.0000000000000000e+02   0.0000000000000000e+00
   2.2300000000000000e-01   1.2300000000000001e+01   1.0000000000000000e+02   0.0000000000000000e+00
   2.2400000000000000e-01   1.2400000000000000e+01   1.0000000000000000e+02   0.0000000000000000e+00
   2.2500000000000001e-01   1.2500000000000000e+01   1.0000000000000000e+02   0.0000000000000000e+00
   2.2600000000000001e-01   1.2600000000000000e+01   1.0000000000000000e+02   0.0000000000000000e+00
   2.2700000000000001e-01   1.2699999999999999e+01   1.0000000000000000e+02   0.0000000000000000e+00
   2.2800000000000001e-01   1.2800000000000001e+01   1.0000000000000000e+02   0.0000000000000000e+00
   2.2900000000000001e-01   1.2900000000000000e+01   1.0000000000000000e+02   0.0000000000000000e+00
   2.3000000000000001e-01   1.3000000000000000e+01   1.0000000000000000e+02   0.0000000000000000e+00
   2.3100000000000001e-01   1.3100000000000000e+01   1.0000000000000000e+02   0.0000000000000000e+00
   2.3200000000000001e-01   1.3199999999999999e+01   1.0000000000000000e+02   0.0000000000000000e+00
   2.3300000000000001e-01   1.3300000000000001e+01   1.0000000000000000e+02   0.0000000000000000e+00
   2.3400000000000001e-01   1.3400000000000000e+01   1.0000000000000000e+02   0.0000000000000000e+00
   2.3500000000000001e-01   1.3500000000000000e+01   1.0000000000000000e+02   0.0000000000000000e+00
   2.3600000000000002e-01   1.3600000000000001e+01   1.0000000000000000e+02   0.0000000000000000e+00
   2.3700000000000002e-01   1.3699999999999999e+01   1.0000000000000000e+02   0.0000000000000000e+00
   2.3800000000000002e-01   1.3800000000000001e+01   1.0000000000000000e+02   0.0000000000000000e+00
   2.3900000000000002e-01   1.3900000000000000e+01   1.0000000000000000e+02   0.0000000000000000e+00
   2.4000000000000002e-01   1.4000000000000000e+01   1.0000000000000000e+02   0.0000000000000000e+00
   2.4100000000000002e-01   1.4100000000000001e+01   1.0000000000000000e+02   0.0000000000000000e+00
   2.4200000000000002e-01   1.4199999999999999e+01   1.0000000000000000e+02   0.0000000000000000e+00
   2.4300000000000002e-01   1.4300000000000001e+01   1.0000000000000000e+02   0.0000000000000000e+00
   2.4399999999999999e-01   1.4399999999999999e+01   1.0000000000000000e+02   0.0000000000000000e+00
   2.4500000000000000e-01   1.4500000000000000e+01   1.0000000000000000e+02   0.0000000000000000e+00
   2.4600000000000000e-01   1.4600000000000000e+01   1.0000000000000000e+02   0.0000000000000000e+00
   2.4700000000000000e-01   1.4699999999999999e+01   1.0000000000000000e+02   0.0000000000000000e+00
   2.4800000000000000e-01   1.4800000000000001e+01   1.0000000000000000e+02   0.0000000000000000e+00
   2.4900000000000000e-01   1.4900000000000000e+01   1.0000000000000000e+02   0.0000000000000000e+00
   2.5000000000000000e-01   1.5000000000000000e+01   1.0000000000000000e+02   0.0000000000000000e+00
   2.5100000000000000e-01   1.5100000000000001e+01   1.0000000000000000e+02   0.0000000000000000e+00
   2.5200000000000000e-01   1.5199999999999999e+01   1.0000000000000000e+02   0.0000000000000000e+00
   2.5300000000000000e-01   1.5300000000000001e+01   1.0000000000000000e+02   0.0000000000000000e+00
   2.5400000000000000e-01   1.5400000000000000e+01   1.0000000000000000e+02   0.0000000000000000e+00
   2.5500000000000000e-01   1.5500000000000000e+01   1.0000000000000000e+02   0.0000000000000000e+00
   2.5600000000000001e-01   1.5600000000000001e+01   1.0000000000000000e+02   0.0000000000000000e+00
   2.5700000000000001e-01   1.5699999999999999e+01   1.0000000000000000e+02   0.0000000000000000e+00
   2.5800000000000001e-01   1.5800000000000001e+01   1.0000000000000000e+02   0.0000000000000000e+00
   2.5900000000000001e-01   1.5900000000000000e+01   1.0000000000000000e+02   0.0000000000000000e+00
   2.6000000000000001e-01   1.6000000000000000e+01   1.0000000000000000e+02   0.0000000000000000e+00
   2.6100000000000001e-01   1.6100000000000001e+01   1.0000000000000000e+02   0.0000000000000000e+00
   2.6200000000000001e-01   1.6199999999999999e+01   1.0000000000000000e+02   0.0000000000000000e+00
   2.6300000000000001e-01   1.6300000000000001e+01   1.0000000000000000e+02   0.0000000000000000e+00
   2.6400000000000001e-01   1.6399999999999999e+01   1.0000000000000000e+02   0.0000000000000000e+00
   2.6500000000000001e-01   1.6500000000000000e+01   1.0000000000000000e+02   0.0000000000000000e+00
   2.6600000000000001e-01   1.6600000000000001e+01   1.0000000000000000e+02   0.0000000000000000e+00
   2.6700000000000002e-01   1.6699999999999999e+01   1.0000000000000000e+02   0.0000000000000000e+00
   2.6800000000000002e-01   1.6800000000000001e+01   1.0000000000000000e+02   0.0000000000000000e+00
   2.6900000000000002e-01   1.6899999999999999e+01   1.0000000000000000e+02   0.0000000000000000e+00
   2.7000000000000002e-01   1.7000000000000000e+01   1.0000000000000000e+02   0.0000000000000000e+00
   2.7100000000000002e-01   1.7100000000000001e+01   1.0000000000000000e+02   0.0000000000000000e+00
   2.7200000000000002e-01   1.7200000000000003e+01   1.0000000000000000e+02   0.0000000000000000e+00
   2.7300000000000002e-01   1.7300000000000001e+01   1.0000000000000000e+02   0.0000000000000000e+00
   2.7400000000000002e-01   1.7399999999999999e+01   1.0000000000000000e+02   0.0000000000000000e+00
   2.7500000000000002e-01   1.7500000000000000e+01   1.0000000000000000e+02   0.0000000000000000e+00
   2.7600000000000002e-01   1.7600000000000001e+01   1.0000000000000000e+02   0.0000000000000000e+00
   2.7700000000000002e-01   1.7699999999999999e+01   1.0000000000000000e+02   0.0000000000000000e+00
   2.7800000000000002e-01   1.7800000000000001e+01   1.0000000000000000e+02   0.0000000000000000e+00
   2.7900000000000003e-01   1.7899999999999999e+01   1.0000000000000000e+02   0.0000000000000000e+00
   2.8000000000000003e-01   1.8000000000000000e+01   1.0000000000000000e+02   0.0000000000000000e+00
   2.8100000000000003e-01   1.8100000000000001e+01   1.0000000000000000e+02   0.0000000000000000e+00
   2.8200000000000003e-01   1.8200000000000003e+01   1.0000000000000000e+02   0.0000000000000000e+00
   2.8300000000000003e-01   1.8300000000000001e+01   1.0000000000000000e+02   0.0000000000000000e+00
   2.8400000000000003e-01   1.8399999999999999e+01   1.0000000000000000e+02   0.0000000000000000e+00
   2.8500000000000003e-01   1.8500000000000000e+01   1.0000000000000000e+02   0.0000000000000000e+00
   2.8600000000000003e-01   1.8600000000000001e+01   1.0000000000000000e+02   0.0000000000000000e+00
   2.8700000000000003e-01   1.8700000000000003e+01   1.0000000000000000e+02   0.0000000000000000e+00
   2.8800000000000003e-01   1.8799999999999997e+01   1.0000000000000000e+02   0.0000000000000000e+00
   2.8900000000000003e-01   1.8899999999999999e+01   1.0000000000000000e+02   0.0000000000000000e+00
   2.9000000000000004e-01   1.9000000000000000e+01   1.0000000000000000e+02   0.0000000000000000e+00
   2.9100000000000004e-01   1.9100000000000001e+01   1.0000000000000000e+02   0.0000000000000000e+00
   2.9200000000000004e-01   1.9199999999999999e+01   1.0000000000000000e+02   0.0000000000000000e+00
   2.9300000000000004e-01   1.9300000000000001e+01   1.0000000000000000e+02   0.0000000000000000e+00
   2.9400000000000004e-01   1.9399999999999999e+01   1.0000000000000000e+02   0.0000000000000000e+00
   2.9500000000000004e-01   1.9500000000000000e+01   1.0000000000000000e+02   0.0000000000000000e+00
   2.9600000000000004e-01   1.9600000000000001e+01   1.0000000000000000e+02   0.0000000000000000e+00
   2.9700000000000004e-01   1.9700000000000003e+01   1.0000000000000000e+02   0.0000000000000000e+00
   2.9800000000000004e-01   1.9800000000000001e+01   1.0000000000000000e+02   0.0000000000000000e+00
   2.9900000000000004e-01   1.9899999999999999e+01   1.0000000000000000e+02   0.0000000000000000e+00
   3.0000000000000004e-01   2.0000000000000000e+01   1.0000000000000000e+02   0.0000000000000000e+00
   3.0100000000000005e-01   2.0100000000000001e+01   1.0000000000000000e+02   0.0000000000000000e+00
   3.0200000000000005e-01   2.0200000000000003e+01   1.0000000000000000e+02   0.0000000000000000e+00
   3.0300000000000005e-01   2.0300000000000001e+01   1.0000000000000000e+02   0.0000000000000000e+00
   3.0400000000000005e-01   2.0399999999999999e+01   1.0000000000000000e+02   0.0000000000000000e+00
   3.0499999999999999e-01   2.0500000000000000e+01   1.0000000000000000e+02   0.0000000000000000e+00
   3.0599999999999999e-01   2.0600000000000001e+01   1.0000000000000000e+02   0.0000000000000000e+00
   3.0700000000000000e-01   2.0699999999999999e+01   1.0000000000000000e+02   0.0000000000000000e+00
   3.0800000000000000e-01   2.0800000000000001e+01   1.0000000000000000e+02   0.0000000000000000e+00
   3.0900000000000000e-01   2.0899999999999999e+01   1.0000000000000000e+02   0.0000000000000000e+00
   3.1000000000000000e-01   2.1000000000000000e+01   1.0000000000000000e+02   0.0000000000000000e+00
   3.1100000000000000e-01   2.1100000000000001e+01   1.0000000000000000e+02   0.0000000000000000e+00
   3.1200000000000000e-01   2.1200000000000003e+01   1.0000000000000000e+02   0.0000000000000000e+00
   3.1300000000000000e-01   2.1300000000000001e+01   1.0000000000000000e+02   0.0000000000000000e+00
   3.1400000000000000e-01   2.1399999999999999e+01   1.0000000000000000e+02   0.0000000000000000e+00
   3.1500000000000000e-01   2.1500000000000000e+01   1.0000000000000000e+02   0.0000000000000000e+00
   3.1600000000000000e-01   2.1600000000000001e+01   1.0000000000000000e+02   0.0000000000000000e+00
   3.1700000000000000e-01   2.1700000000000003e+01   1.0000000000000000e+02   0.0000000000000000e+00
   3.1800000000000000e-01   2.1800000000000001e+01   1.0000000000000000e+02   0.0000000000000000e+00
   3.1900000000000001e-01   2.1899999999999999e+01   1.0000000000000000e+02   0.0000000000000000e+00
   3.2000000000000001e-01   2.2000000000000000e+01   1.0000000000000000e+02   0.0000000000000000e+00
   3.2100000000000001e-01   2.2100000000000001e+01   1.0000000000000000e+02   0.0000000000000000e+00
   3.2200000000000001e-01   2.2199999999999999e+01   1.0000000000000000e+02   0.0000000000000000e+00
   3.2300000000000001e-01   2.2300000000000001e+01   1.0000000000000000e+02   0.0000000000000000e+00
   3.2400000000000001e-01   2.2399999999999999e+01   1.0000000000000000e+02   0.0000000000000000e+00
   3.2500000000000001e-01   2.2500000000000000e+01   1.0000000000000000e+02   0.0000000000000000e+00
   3.2600000000000001e-01   2.2600000000000001e+01   1.0000000000000000e+02   0.0000000000000000e+00
   3.2700000000000001e-01   2.2699999999999999e+01   1.0000000000000000e+02   0.0000000000000000e+00
   3.2800000000000001e-01   2.2800000000000001e+01   1.0000000000000000e+02   0.0000000000000000e+00
   3.2900000000000001e-01   2.2899999999999999e+01   1.0000000000000000e+02   0.0000000000000000e+00
   3.3000000000000002e-01   2.3000000000000000e+01   1.0000000000000000e+02   0.0000000000000000e+00
   3.3100000000000002e-01   2.3100000000000001e+01   1.0000000000000000e+02   0.0000000000000000e+00
   3.3200000000000002e-01   2.3200000000000003e+01   1.0000000000000000e+02   0.0000000000000000e+00
   3.3300000000000002e-01   2.3300000000000001e+01   1.0000000000000000e+02   0.0000000000000000e+00
   3.3400000000000002e-01   2.3399999999999999e+01   1.0000000000000000e+02   0.0000000000000000e+00
   3.3500000000000002e-01   2.3500000000000000e+01   1.0000000000000000e+02   0.0000000000000000e+00
   3.3600000000000002e-01   2.3600000000000001e+01   1.0000000000000000e+02   0.0000000000000000e+00
   3.3700000000000002e-01   2.3700000000000003e+01   1.0000000000000000e+02   0.0000000000000000e+00
   3.3800000000000002e-01   2.3800000000000001e+01   1.0000000000000000e+02   0.0000000000000000e+00
   3.3900000000000002e-01   2.3900000000000002e+01   1.0000000000000000e+02   0.0000000000000000e+00
   3.4000000000000002e-01   2.4000000000000000e+01   1.0000000000000000e+02   0.0000000000000000e+00
   3.4100000000000003e-01   2.4100000000000001e+01   1.0000000000000000e+02   0.0000000000000000e+00
   3.4200000000000003e-01   2.4200000000000003e+01   1.0000000000000000e+02   0.0000000000000000e+00
   3.4300000000000003e-01   2.4300000000000001e+01   1.0000000000000000e+02   0.0000000000000000e+00
   3.4400000000000003e-01   2.4400000000000002e+01   1.0000000000000000e+02   0.0000000000000000e+00
   3.4499999999999997e-01   2.4500000000000000e+01   1.0000000000000000e+02   0.0000000000000000e+00
   3.4599999999999997e-01   2.4600000000000001e+01   1.0000000000000000e+02   0.0000000000000000e+00
   3.4699999999999998e-01   2.4699999999999999e+01   1.0000000000000000e+02   0.0000000000000000e+00
   3.4799999999999998e-01   2.4799999999999997e+01   1.0000000000000000e+02   0.0000000000000000e+00
   3.4899999999999998e-01   2.4899999999999999e+01   1.0000000000000000e+02   0.0000000000000000e+00
   3.4999999999999998e-01   2.5000000000000000e+01   1.0000000000000000e+02   0.0000000000000000e+00
   3.5099999999999998e-01   2.5100000000000001e+01   1.0000000000000000e+02   0.0000000000000000e+00
   3.5199999999999998e-01   2.5199999999999999e+01   1.0000000000000000e+02   0.0000000000000000e+00
   3.5299999999999998e-01   2.5299999999999997e+01   1.0000000000000000e+02   0.0000000000000000e+00
   3.5399999999999998e-01   2.5399999999999999e+01   1.0000000000000000e+02   0.0000000000000000e+00
   3.5499999999999998e-01   2.5500000000000000e+01   1.0000000000000000e+02   0.0000000000000000e+00
   3.5599999999999998e-01   2.5599999999999998e+01   1.0000000000000000e+02   0.0000000000000000e+00
   3.5699999999999998e-01   2.5699999999999996e+01   1.0000000000000000e+02   0.0000000000000000e+00
   3.5799999999999998e-01   2.5799999999999997e+01   1.0000000000000000e+02   0.0000000000000000e+00
   3.5899999999999999e-01   2.5899999999999999e+01   1.0000000000000000e+02   0.0000000000000000e+00
   3.5999999999999999e-01   2.6000000000000000e+01   1.0000000000000000e+02   0.0000000000000000e+00
   3.6099999999999999e-01   2.6099999999999998e+01   1.0000000000000000e+02   0.0000000000000000e+00
   3.6199999999999999e-01   2.6199999999999999e+01   1.0000000000000000e+02   0.0000000000000000e+00
   3.6299999999999999e-01   2.6299999999999997e+01   1.0000000000000000e+02   0.0000000000000000e+00
   3.6399999999999999e-01   2.6399999999999999e+01   1.0000000000000000e+02   0.0000000000000000e+00
   3.6499999999999999e-01   2.6499999999999996e+01   1.0000000000000000e+02   0.0000000000000000e+00
   3.6599999999999999e-01   2.6599999999999998e+01   1.0000000000000000e+02   0.0000000000000000e+00
   3.6699999999999999e-01   2.6699999999999999e+01   1.0000000000000000e+02   0.0000000000000000e+00
   3.6799999999999999e-01   2.6799999999999997e+01   1.0000000000000000e+02   0.0000000000000000e+00
   3.6899999999999999e-01   2.6899999999999999e+01   1.0000000000000000e+02   0.0000000000000000e+00
   3.7000000000000000e-01   2.7000000000000000e+01   1.0000000000000000e+02   0.0000000000000000e+00
   3.7100000000000000e-01   2.7099999999999998e+01   1.0000000000000000e+02   0.0000000000000000e+00
   3.7200000000000000e-01   2.7199999999999999e+01   1.0000000000000000e+02   0.0000000000000000e+00
   3.7300000000000000e-01   2.7299999999999997e+01   1.0000000000000000e+02   0.0000000000000000e+00
   3.7400000000000000e-01   2.7399999999999999e+01   1.0000000000000000e+02   0.0000000000000000e+00
   3.7500000000000000e-01   2.7500000000000000e+01   1.0000000000000000e+02   0.0000000000000000e+00
   3.7600000000000000e-01   2.7599999999999998e+01   1.0000000000000000e+02   0.0000000000000000e+00
   3.7700000000000000e-01   2.7699999999999999e+01   1.0000000000000000e+02   0.0000000000000000e+00
   3.7800000000000000e-01   2.7800000000000001e+01   1.0000000000000000e+02   0.0000000000000000e+00
   3.7900000000000000e-01   2.7899999999999999e+01   1.0000000000000000e+02   0.0000000000000000e+00
   3.8000000000000000e-01   2.8000000000000000e+01   1.0000000000000000e+02   0.0000000000000000e+00
   3.8100000000000001e-01   2.8099999999999998e+01   1.0000000000000000e+02   0.0000000000000000e+00
   3.8200000000000001e-01   2.8199999999999999e+01   1.0000000000000000e+02   0.0000000000000000e+00
   3.8300000000000001e-01   2.8300000000000001e+01   1.0000000000000000e+02   0.0000000000000000e+00
   3.8400000000000001e-01   2.8399999999999999e+01   1.0000000000000000e+02   0.0000000000000000e+00
   3.8500000000000001e-01   2.8500000000000000e+01   1.0000000000000000e+02   0.0000000000000000e+00
   3.8600000000000001e-01   2.8600000000000001e+01   1.0000000000000000e+02   0.0000000000000000e+00
   3.8700000000000001e-01   2.8699999999999999e+01   1.0000000000000000e+02   0.0000000000000000e+00
   3.8800000000000001e-01   2.8800000000000001e+01   1.0000000000000000e+02   0.0000000000000000e+00
   3.8900000000000001e-01   2.8899999999999999e+01   1.0000000000000000e+02   0.0000000000000000e+00
   3.9000000000000001e-01   2.9000000000000000e+01   1.0000000000000000e+02   0.0000000000000000e+00
   3.9100000000000001e-01   2.9100000000000001e+01   1.0000000000000000e+02   0.0000000000000000e+00
   3.9200000000000002e-01   2.9199999999999999e+01   1.0000000000000000e+02   0.0000000000000000e+00
   3.9300000000000002e-01   2.9300000000000001e+01   1.0000000000000000e+02   0.0000000000000000e+00
   3.9400000000000002e-01   2.9400000000000002e+01   1.0000000000000000e+02   0.0000000000000000e+00
   3.9500000000000002e-01   2.9500000000000000e+01   1.0000000000000000e+02   0.0000000000000000e+00
   3.9600000000000002e-01   2.9599999999999998e+01   1.0000000000000000e+02   0.0000000000000000e+00
   3.9700000000000002e-01   2.9699999999999999e+01   1.0000000000000000e+02   0.0000000000000000e+00
   3.9800000000000002e-01   2.9799999999999997e+01   1.0000000000000000e+02   0.0000000000000000e+00
   3.9900000000000002e-01   2.9899999999999999e+01   1.0000000000000000e+02   0.0000000000000000e+00
   4.0000000000000002e-01   3.0000000000000000e+01   1.0000000000000000e+02   0.0000000000000000e+00
   4.0100000000000002e-01   3.0099999999999998e+01   1.0000000000000000e+02   0.0000000000000000e+00
   4.0200000000000002e-01   3.0199999999999999e+01   1.0000000000000000e+02   0.0000000000000000e+00
   4.0300000000000002e-01   3.0299999999999997e+01   1.0000000000000000e+02   0.0000000000000000e+00
   4.0400000000000003e-01   3.0399999999999999e+01   1.0000000000000000e+02   0.0000000000000000e+00
   4.0500000000000003e-01   3.0500000000000000e+01   1.0000000000000000e+02   0.0000000000000000e+00
   4.0600000000000003e-01   3.0599999999999998e+01   1.0000000000000000e+02   0.0000000000000000e+00
   4.0700000000000003e-01   3.0699999999999999e+01   1.0000000000000000e+02   0.0000000000000000e+00
   4.0800000000000003e-01   3.0800000000000001e+01   1.0000000000000000e+02   0.0000000000000000e+00
   4.0900000000000003e-01   3.0899999999999999e+01   1.0000000000000000e+02   0.0000000000000000e+00
   4.1000000000000003e-01   3.1000000000000000e+01   1.0000000000000000e+02   0.0000000000000000e+00
   4.1100000000000003e-01   3.1099999999999998e+01   1.0000000000000000e+02   0.0000000000000000e+00
   4.1200000000000003e-01   3.1199999999999999e+01   1.0000000000000000e+02   0.0000000000000000e+00
   4.1299999999999998e-01   3.1299999999999997e+01   1.0000000000000000e+02   0.0000000000000000e+00
   4.1399999999999998e-01   3.1399999999999999e+01   1.0000000000000000e+02   0.0000000000000000e+00
   4.1499999999999998e-01   3.1499999999999996e+01   1.0000000000000000e+02   0.0000000000000000e+00
   4.1599999999999998e-01   3.1599999999999998e+01   1.0000000000000000e+02   0.0000000000000000e+00
   4.1699999999999998e-01   3.1699999999999996e+01   1.0000000000000000e+02   0.0000000000000000e+00
   4.1799999999999998e-01   3.1799999999999997e+01   1.0000000000000000e+02   0.0000000000000000e+00
   4.1899999999999998e-01   3.1899999999999999e+01   1.0000000000000000e+02   0.0000000000000000e+00
   4.1999999999999998e-01   3.1999999999999996e+01   1.0000000000000000e+02   0.0000000000000000e+00
   4.2099999999999999e-01   3.2099999999999994e+01   1.0000000000000000e+02   0.0000000000000000e+00
   4.2199999999999999e-01   3.2199999999999996e+01   1.0000000000000000e+02   0.0000000000000000e+00
   4.2299999999999999e-01   3.2299999999999997e+01   1.0000000000000000e+02   0.0000000000000000e+00
   4.2399999999999999e-01   3.2399999999999999e+01   1.0000000000000000e+02   0.0000000000000000e+00
   4.2499999999999999e-01   3.2500000000000000e+01   1.0000000000000000e+02   0.0000000000000000e+00
   4.2599999999999999e-01   3.2599999999999994e+01   1.0000000000000000e+02   0.0000000000000000e+00
   4.2699999999999999e-01   3.2700000000000003e+01   1.0000000000000000e+02   0.0000000000000000e+00
   4.2799999999999999e-01   3.2799999999999997e+01   1.0000000000000000e+02   0.0000000000000000e+00
   4.2899999999999999e-01   3.2899999999999999e+01   1.0000000000000000e+02   0.0000000000000000e+00
   4.2999999999999999e-01   3.3000000000000000e+01   1.0000000000000000e+02   0.0000000000000000e+00
   4.3099999999999999e-01   3.3099999999999994e+01   1.0000000000000000e+02   0.0000000000000000e+00
   4.3200000000000000e-01   3.3200000000000003e+01   1.0000000000000000e+02   0.0000000000000000e+00
   4.3300000000000000e-01   3.3299999999999997e+01   1.0000000000000000e+02   0.0000000000000000e+00
   4.3400000000000000e-01   3.3399999999999999e+01   1.0000000000000000e+02   0.0000000000000000e+00
   4.3500000000000000e-01   3.3500000000000000e+01   1.0000000000000000e+02   0.0000000000000000e+00
   4.3600000000000000e-01   3.3599999999999994e+01   1.0000000000000000e+02   0.0000000000000000e+00
   4.3700000000000000e-01   3.3700000000000003e+01   1.0000000000000000e+02   0.0000000000000000e+00
   4.3800000000000000e-01   3.3799999999999997e+01   1.0000000000000000e+02   0.0000000000000000e+00
   4.3900000000000000e-01   3.3899999999999999e+01   1.0000000000000000e+02   0.0000000000000000e+00
   4.4000000000000000e-01   3.4000000000000000e+01   1.0000000000000000e+02   0.0000000000000000e+00
   4.4100000000000000e-01   3.4099999999999994e+01   1.0000000000000000e+02   0.0000000000000000e+00
   4.4200000000000000e-01   3.4200000000000003e+01   1.0000000000000000e+02   0.0000000000000000e+00
   4.4300000000000000e-01   3.4299999999999997e+01   1.0000000000000000e+02   0.0000000000000000e+00
   4.4400000000000001e-01   3.4399999999999999e+01   1.0000000000000000e+02   0.0000000000000000e+00
   4.4500000000000001e-01   3.4500000000000000e+01   1.0000000000000000e+02   0.0000000000000000e+00
   4.4600000000000001e-01   3.4600000000000001e+01   1.0000000000000000e+02   0.0000000000000000e+00
   4.4700000000000001e-01   3.4700000000000003e+01   1.0000000000000000e+02   0.0000000000000000e+00
   4.4800000000000001e-01   3.4799999999999997e+01   1.0000000000000000e+02   0.0000000000000000e+00
   4.4900000000000001e-01   3.4899999999999999e+01   1.0000000000000000e+02   0.0000000000000000e+00
   4.5000000000000001e-01   3.5000000000000000e+01   1.0000000000000000e+02   0.0000000000000000e+00
   4.5100000000000001e-01   3.5100000000000001e+01   1.0000000000000000e+02   0.0000000000000000e+00
   4.5200000000000001e-01   3.5200000000000003e+01   1.0000000000000000e+02   0.0000000000000000e+00
   4.5300000000000001e-01   3.5299999999999997e+01   1.0000000000000000e+02   0.0000000000000000e+00
   4.5400000000000001e-01   3.5399999999999999e+01   1.0000000000000000e+02   0.0000000000000000e+00
   4.5500000000000002e-01   3.5500000000000000e+01   1.0000000000000000e+02   0.0000000000000000e+00
   4.5600000000000002e-01   3.5600000000000001e+01   1.0000000000000000e+02   0.0000000000000000e+00
   4.5700000000000002e-01   3.5700000000000003e+01   1.0000000000000000e+02   0.0000000000000000e+00
   4.5800000000000002e-01   3.5799999999999997e+01   1.0000000000000000e+02   0.0000000000000000e+00
   4.5900000000000002e-01   3.5900000000000006e+01   1.0000000000000000e+02   0.0000000000000000e+00
   4.6000000000000002e-01   3.6000000000000000e+01   1.0000000000000000e+02   0.0000000000000000e+00
   4.6100000000000002e-01   3.6100000000000001e+01   1.0000000000000000e+02   0.0000000000000000e+00
   4.6200000000000002e-01   3.6200000000000003e+01   1.0000000000000000e+02   0.0000000000000000e+00
   4.6300000000000002e-01   3.6299999999999997e+01   1.0000000000000000e+02   0.0000000000000000e+00
   4.6400000000000002e-01   3.6400000000000006e+01   1.0000000000000000e+02   0.0000000000000000e+00
   4.6500000000000002e-01   3.6500000000000000e+01   1.0000000000000000e+02   0.0000000000000000e+00
   4.6600000000000003e-01   3.6600000000000001e+01   1.0000000000000000e+02   0.0000000000000000e+00
   4.6700000000000003e-01   3.6700000000000003e+01   1.0000000000000000e+02   0.0000000000000000e+00
   4.6800000000000003e-01   3.6799999999999997e+01   1.0000000000000000e+02   0.0000000000000000e+00
   4.6900000000000003e-01   3.6900000000000006e+01   1.0000000000000000e+02   0.0000000000000000e+00
   4.7000000000000003e-01   3.7000000000000000e+01   1.0000000000000000e+02   0.0000000000000000e+00
   4.7099999999999997e-01   3.7099999999999994e+01   1.0000000000000000e+02   0.0000000000000000e+00
   4.7199999999999998e-01   3.7199999999999996e+01   1.0000000000000000e+02   0.0000000000000000e+00
   4.7299999999999998e-01   3.7299999999999997e+01   1.0000000000000000e+02   0.0000000000000000e+00
   4.7399999999999998e-01   3.7399999999999991e+01   1.0000000000000000e+02   0.0000000000000000e+00
   4.7499999999999998e-01   3.7500000000000000e+01   1.0000000000000000e+02   0.0000000000000000e+00
   4.7599999999999998e-01   3.7599999999999994e+01   1.0000000000000000e+02   0.0000000000000000e+00
   4.7699999999999998e-01   3.7699999999999996e+01   1.0000000000000000e+02   0.0000000000000000e+00
   4.7799999999999998e-01   3.7799999999999997e+01   1.0000000000000000e+02   0.0000000000000000e+00
   4.7899999999999998e-01   3.7899999999999999e+01   1.0000000000000000e+02   0.0000000000000000e+00
   4.7999999999999998e-01   3.8000000000000000e+01   1.0000000000000000e+02   0.0000000000000000e+00
   4.8099999999999998e-01   3.8099999999999994e+01   1.0000000000000000e+02   0.0000000000000000e+00
   4.8199999999999998e-01   3.8199999999999996e+01   1.0000000000000000e+02   0.0000000000000000e+00
   4.8299999999999998e-01   3.8299999999999997e+01   1.0000000000000000e+02   0.0000000000000000e+00
   4.8399999999999999e-01   3.8399999999999999e+01   1.0000000000000000e+02   0.0000000000000000e+00
   4.8499999999999999e-01   3.8500000000000000e+01   1.0000000000000000e+02   0.0000000000000000e+00
   4.8599999999999999e-01   3.8599999999999994e+01   1.0000000000000000e+02   0.0000000000000000e+00
   4.8699999999999999e-01   3.8700000000000003e+01   1.0000000000000000e+02   0.0000000000000000e+00
   4.8799999999999999e-01   3.8799999999999997e+01   1.0000000000000000e+02   0.0000000000000000e+00
   4.8899999999999999e-01   3.8899999999999999e+01   1.0000000000000000e+02   0.0000000000000000e+00
   4.8999999999999999e-01   3.9000000000000000e+01   1.0000000000000000e+02   0.0000000000000000e+00
   4.9099999999999999e-01   3.9099999999999994e+01   1.0000000000000000e+02   0.0000000000000000e+00
   4.9199999999999999e-01   3.9200000000000003e+01   1.0000000000000000e+02   0.0000000000000000e+00
   4.9299999999999999e-01   3.9299999999999997e+01   1.0000000000000000e+02   0.0000000000000000e+00
   4.9399999999999999e-01   3.9399999999999999e+01   1.0000000000000000e+02   0.0000000000000000e+00
   4.9500000000000000e-01   3.9500000000000000e+01   1.0000000000000000e+02   0.0000000000000000e+00
   4.9600000000000000e-01   3.9599999999999994e+01   1.0000000000000000e+02   0.0000000000000000e+00
   4.9700000000000000e-01   3.9700000000000003e+01   1.0000000000000000e+02   0.0000000000000000e+00
   4.9800000000000000e-01   3.9799999999999997e+01   1.0000000000000000e+02   0.0000000000000000e+00
   4.9900000000000000e-01   3.9899999999999999e+01   1.0000000000000000e+02   0.0000000000000000e+00
   5.0000000000000000e-01   4.0000000000000000e+01   1.0000000000000000e+02   0.0000000000000000e+00
   5.0100000000000000e-01   4.0099750000000000e+01   9.9500000000000000e+01  -5.0000000000000000e+02
   5.0200000000000000e-01   4.0198999999999998e+01   9.9000000000000000e+01  -5.0000000000000000e+02
   5.0300000000000000e-01   4.0297750000000001e+01   9.8500000000000000e+01  -5.0000000000000000e+02
   5.0400000000000000e-01   4.0396000000000001e+01   9.8000000000000000e+01  -5.0000000000000000e+02
   5.0500000000000000e-01   4.0493749999999999e+01   9.7500000000000000e+01  -5.0000000000000000e+02
   5.0600000000000001e-01   4.0591000000000001e+01   9.7000000000000000e+01  -5.0000000000000000e+02
   5.0700000000000001e-01   4.0687750000000001e+01   9.6500000000000000e+01  -5.0000000000000000e+02
   5.0800000000000001e-01   4.0783999999999999e+01   9.6000000000000000e+01  -5.0000000000000000e+02
   5.0900000000000001e-01   4.0879750000000001e+01   9.5500000000000000e+01  -5.0000000000000000e+02
   5.1000000000000001e-01   4.0975000000000001e+01   9.5000000000000000e+01  -5.0000000000000000e+02
   5.1100000000000001e-01   4.1069749999999999e+01   9.4500000000000000e+01  -5.0000000000000000e+02
   5.1200000000000001e-01   4.1164000000000001e+01   9.4000000000000000e+01  -5.0000000000000000e+02
   5.1300000000000001e-01   4.1257750000000001e+01   9.3500000000000000e+01  -5.0000000000000000e+02
   5.1400000000000001e-01   4.1350999999999999e+01   9.3000000000000000e+01  -5.0000000000000000e+02
   5.1500000000000001e-01   4.1443750000000001e+01   9.2500000000000000e+01  -5.0000000000000000e+02
   5.1600000000000001e-01   4.1536000000000001e+01   9.2000000000000000e+01  -5.0000000000000000e+02
   5.1700000000000002e-01   4.1627749999999999e+01   9.1500000000000000e+01  -5.0000000000000000e+02
   5.1800000000000002e-01   4.1719000000000001e+01   9.1000000000000000e+01  -5.0000000000000000e+02
   5.1900000000000002e-01   4.1809750000000001e+01   9.0500000000000000e+01  -5.0000000000000000e+02
   5.2000000000000002e-01   4.1899999999999999e+01   9.0000000000000000e+01  -5.0000000000000000e+02
   5.2100000000000002e-01   4.1989750000000001e+01   8.9500000000000000e+01  -5.0000000000000000e+02
   5.2200000000000002e-01   4.2079000000000001e+01   8.9000000000000000e+01  -5.0000000000000000e+02
   5.2300000000000002e-01   4.2167749999999998e+01   8.8500000000000000e+01  -5.0000000000000000e+02
   5.2400000000000002e-01   4.2256000000000000e+01   8.8000000000000000e+01  -5.0000000000000000e+02
   5.2500000000000002e-01   4.2343750000000000e+01   8.7500000000000000e+01  -5.0000000000000000e+02
   5.2600000000000002e-01   4.2430999999999997e+01   8.7000000000000000e+01  -5.0000000000000000e+02
   5.2700000000000002e-01   4.2517749999999999e+01   8.6500000000000000e+01  -5.0000000000000000e+02
   5.2800000000000002e-01   4.2603999999999999e+01   8.6000000000000000e+01  -5.0000000000000000e+02
   5.2900000000000003e-01   4.2689750000000004e+01   8.5500000000000000e+01  -5.0000000000000000e+02
   5.3000000000000003e-01   4.2774999999999999e+01   8.5000000000000000e+01  -5.0000000000000000e+02
   5.3100000000000003e-01   4.2859749999999998e+01   8.4500000000000000e+01  -5.0000000000000000e+02
   5.3200000000000003e-01   4.2944000000000003e+01   8.4000000000000000e+01  -5.0000000000000000e+02
   5.3300000000000003e-01   4.3027749999999997e+01   8.3500000000000000e+01  -5.0000000000000000e+02
   5.3400000000000003e-01   4.3110999999999997e+01   8.3000000000000000e+01  -5.0000000000000000e+02
   5.3500000000000003e-01   4.3193750000000001e+01   8.2500000000000000e+01  -5.0000000000000000e+02
   5.3600000000000003e-01   4.3276000000000003e+01   8.2000000000000000e+01  -5.0000000000000000e+02
   5.3700000000000003e-01   4.3357750000000003e+01   8.1500000000000000e+01  -5.0000000000000000e+02
   5.3800000000000003e-01   4.3439000000000000e+01   8.1000000000000000e+01  -5.0000000000000000e+02
   5.3900000000000003e-01   4.3519750000000002e+01   8.0500000000000000e+01  -5.0000000000000000e+02
   5.4000000000000004e-01   4.3600000000000001e+01   8.0000000000000000e+01  -5.0000000000000000e+02
   5.4100000000000004e-01   4.3679749999999999e+01   7.9500000000000000e+01  -5.0000000000000000e+02
   5.4200000000000004e-01   4.3759000000000000e+01   7.9000000000000000e+01  -5.0000000000000000e+02
   5.4300000000000004e-01   4.3837750000000000e+01   7.8500000000000000e+01  -5.0000000000000000e+02
   5.4400000000000004e-01   4.3915999999999997e+01   7.8000000000000000e+01  -5.0000000000000000e+02
   5.4499999999999993e-01   4.3993749999999999e+01   7.7500000000000000e+01  -5.0000000000000000e+02
   5.4600000000000004e-01   4.4070999999999998e+01   7.7000000000000000e+01  -5.0000000000000000e+02
   5.4699999999999993e-01   4.4147750000000002e+01   7.6500000000000000e+01  -5.0000000000000000e+02
   5.4800000000000004e-01   4.4224000000000004e+01   7.6000000000000000e+01  -5.0000000000000000e+02
   5.4899999999999993e-01   4.4299750000000003e+01   7.5500000000000000e+01  -5.0000000000000000e+02
   5.5000000000000004e-01   4.4375000000000000e+01   7.5000000000000000e+01  -5.0000000000000000e+02
   5.5099999999999993e-01   4.4449750000000002e+01   7.4500000000000000e+01  -5.0000000000000000e+02
   5.5200000000000005e-01   4.4524000000000001e+01   7.4000000000000000e+01  -5.0000000000000000e+02
   5.5299999999999994e-01   4.4597749999999998e+01   7.3500000000000000e+01  -5.0000000000000000e+02
   5.5400000000000005e-01   4.4670999999999999e+01   7.3000000000000000e+01  -5.0000000000000000e+02
   5.5499999999999994e-01   4.4743749999999999e+01   7.2500000000000000e+01  -5.0000000000000000e+02
   5.5600000000000005e-01   4.4816000000000003e+01   7.2000000000000000e+01  -5.0000000000000000e+02
   5.5699999999999994e-01   4.4887749999999997e+01   7.1500000000000000e+01  -5.0000000000000000e+02
   5.5800000000000005e-01   4.4959000000000003e+01   7.1000000000000000e+01  -5.0000000000000000e+02
   5.5899999999999994e-01   4.5029750000000000e+01   7.0500000000000000e+01  -5.0000000000000000e+02
   5.6000000000000005e-01   4.5100000000000001e+01   7.0000000000000000e+01  -5.0000000000000000e+02
   5.6099999999999994e-01   4.5169750000000001e+01   6.9500000000000000e+01  -5.0000000000000000e+02
   5.6200000000000006e-01   4.5238999999999997e+01   6.9000000000000000e+01  -5.0000000000000000e+02
   5.6299999999999994e-01   4.5307749999999999e+01   6.8500000000000000e+01  -5.0000000000000000e+02
   5.6400000000000006e-01   4.5375999999999998e+01   6.8000000000000000e+01  -5.0000000000000000e+02
   5.6499999999999995e-01   4.5443750000000001e+01   6.7500000000000000e+01  -5.0000000000000000e+02
   5.6600000000000006e-01   4.5511000000000003e+01   6.7000000000000000e+01  -5.0000000000000000e+02
   5.6699999999999995e-01   4.5577750000000002e+01   6.6500000000000000e+01  -5.0000000000000000e+02
   5.6800000000000006e-01   4.5643999999999998e+01   6.6000000000000000e+01  -5.0000000000000000e+02
   5.6899999999999995e-01   4.5709750000000000e+01   6.5500000000000000e+01  -5.0000000000000000e+02
   5.7000000000000006e-01   4.5774999999999999e+01   6.5000000000000000e+01  -5.0000000000000000e+02
   5.7099999999999995e-01   4.5839750000000002e+01   6.4500000000000000e+01  -5.0000000000000000e+02
   5.7200000000000006e-01   4.5904000000000003e+01   6.4000000000000000e+01  -5.0000000000000000e+02
   5.7299999999999995e-01   4.5967750000000002e+01   6.3500000000000000e+01  -5.0000000000000000e+02
   5.7400000000000007e-01   4.6030999999999999e+01   6.3000000000000007e+01  -5.0000000000000000e+02
   5.7499999999999996e-01   4.6093750000000000e+01   6.2500000000000000e+01  -5.0000000000000000e+02
   5.7600000000000007e-01   4.6155999999999999e+01   6.2000000000000007e+01  -5.0000000000000000e+02
   5.7699999999999996e-01   4.6217750000000002e+01   6.1500000000000000e+01  -5.0000000000000000e+02
   5.7800000000000007e-01   4.6278999999999996e+01   6.1000000000000000e+01  -5.0000000000000000e+02
   5.7899999999999996e-01   4.6339750000000002e+01   6.0500000000000000e+01  -5.0000000000000000e+02
   5.8000000000000007e-01   4.6399999999999999e+01   6.0000000000000000e+01  -5.0000000000000000e+02
   5.8099999999999996e-01   4.6459750000000000e+01   5.9500000000000007e+01  -5.0000000000000000e+02
   5.8200000000000007e-01   4.6518999999999998e+01   5.9000000000000000e+01  -5.0000000000000000e+02
   5.8299999999999996e-01   4.6577750000000002e+01   5.8500000000000000e+01  -5.0000000000000000e+02
   5.8400000000000007e-01   4.6636000000000003e+01   5.8000000000000000e+01  -5.0000000000000000e+02
   5.8499999999999996e-01   4.6693750000000001e+01   5.7500000000000000e+01  -5.0000000000000000e+02
   5.8600000000000008e-01   4.6751000000000005e+01   5.6999999999999993e+01  -5.0000000000000000e+02
   5.8699999999999997e-01   4.6807749999999999e+01   5.6500000000000000e+01  -5.0000000000000000e+02
   5.8800000000000008e-01   4.6863999999999997e+01   5.6000000000000007e+01  -5.0000000000000000e+02
   5.8899999999999997e-01   4.6919750000000001e+01   5.5500000000000000e+01  -5.0000000000000000e+02
   5.9000000000000008e-01   4.6975000000000001e+01   5.5000000000000000e+01  -5.0000000000000000e+02
   5.9099999999999997e-01   4.7029750000000000e+01   5.4500000000000007e+01  -5.0000000000000000e+02
   5.9200000000000008e-01   4.7084000000000003e+01   5.4000000000000007e+01  -5.0000000000000000e+02
   5.9299999999999997e-01   4.7137749999999997e+01   5.3500000000000000e+01  -5.0000000000000000e+02
   5.9400000000000008e-01   4.7191000000000003e+01   5.3000000000000000e+01  -5.0000000000000000e+02
   5.9499999999999997e-01   4.7243749999999999e+01   5.2500000000000000e+01  -5.0000000000000000e+02
   5.9600000000000009e-01   4.7295999999999999e+01   5.2000000000000007e+01  -5.0000000000000000e+02
   5.9699999999999998e-01   4.7347750000000005e+01   5.1500000000000000e+01  -5.0000000000000000e+02
   5.9800000000000009e-01   4.7399000000000001e+01   5.1000000000000000e+01  -5.0000000000000000e+02
   5.9899999999999998e-01   4.7449750000000002e+01   5.0500000000000000e+01  -5.0000000000000000e+02
   6.0000000000000009e-01   4.7500000000000000e+01   5.0000000000000000e+01  -5.0000000000000000e+02
   6.0099999999999998e-01   4.7549750000000003e+01   4.9499999999999993e+01  -5.0000000000000000e+02
   6.0200000000000009e-01   4.7599000000000004e+01   4.9000000000000000e+01  -5.0000000000000000e+02
   6.0299999999999998e-01   4.7647750000000002e+01   4.8500000000000000e+01  -5.0000000000000000e+02
   6.0400000000000009e-01   4.7695999999999998e+01   4.8000000000000000e+01  -5.0000000000000000e+02
   6.0499999999999998e-01   4.7743749999999999e+01   4.7499999999999993e+01  -5.0000000000000000e+02
   6.0600000000000009e-01   4.7790999999999997e+01   4.6999999999999993e+01  -5.0000000000000000e+02
   6.0699999999999998e-01   4.7837750000000000e+01   4.6500000000000000e+01  -5.0000000000000000e+02
   6.0800000000000010e-01   4.7884000000000000e+01   4.6000000000000000e+01  -5.0000000000000000e+02
   6.0899999999999999e-01   4.7929749999999999e+01   4.5499999999999993e+01  -5.0000000000000000e+02
   6.1000000000000010e-01   4.7975000000000001e+01   4.4999999999999993e+01  -5.0000000000000000e+02
   6.1099999999999999e-01   4.8019750000000002e+01   4.4499999999999993e+01  -5.0000000000000000e+02
   6.1200000000000010e-01   4.8064000000000000e+01   4.4000000000000000e+01  -5.0000000000000000e+02
   6.1299999999999999e-01   4.8107750000000003e+01   4.3500000000000000e+01  -5.0000000000000000e+02
   6.1399999999999999e-01   4.8150999999999996e+01   4.3000000000000000e+01  -5.0000000000000000e+02
   6.1499999999999999e-01   4.8193750000000001e+01   4.2500000000000000e+01  -5.0000000000000000e+02
   6.1599999999999999e-01   4.8236000000000004e+01   4.1999999999999993e+01  -5.0000000000000000e+02
   6.1699999999999999e-01   4.8277749999999997e+01   4.1500000000000000e+01  -5.0000000000000000e+02
   6.1799999999999999e-01   4.8319000000000003e+01   4.1000000000000000e+01  -5.0000000000000000e+02
   6.1899999999999999e-01   4.8359749999999998e+01   4.0500000000000000e+01  -5.0000000000000000e+02
   6.2000000000000000e-01   4.8399999999999999e+01   3.9999999999999993e+01  -5.0000000000000000e+02
   6.2100000000000000e-01   4.8439750000000004e+01   3.9499999999999993e+01  -5.0000000000000000e+02
   6.2200000000000000e-01   4.8478999999999999e+01   3.9000000000000000e+01  -5.0000000000000000e+02
   6.2300000000000000e-01   4.8517749999999999e+01   3.8500000000000000e+01  -5.0000000000000000e+02
   6.2400000000000000e-01   4.8555999999999997e+01   3.7999999999999993e+01  -5.0000000000000000e+02
   6.2500000000000000e-01   4.8593750000000000e+01   3.7500000000000000e+01  -5.0000000000000000e+02
   6.2600000000000000e-01   4.8631000000000000e+01   3.7000000000000007e+01  -5.0000000000000000e+02
   6.2700000000000000e-01   4.8667749999999998e+01   3.6500000000000007e+01  -5.0000000000000000e+02
   6.2800000000000000e-01   4.8704000000000001e+01   3.6000000000000000e+01  -5.0000000000000000e+02
   6.2900000000000000e-01   4.8739750000000001e+01   3.5500000000000000e+01  -5.0000000000000000e+02
   6.3000000000000000e-01   4.8774999999999999e+01   3.5000000000000000e+01  -5.0000000000000000e+02
   6.3100000000000001e-01   4.8809750000000001e+01   3.4500000000000000e+01  -5.0000000000000000e+02
   6.3200000000000001e-01   4.8844000000000001e+01   3.4000000000000000e+01  -5.0000000000000000e+02
   6.3300000000000001e-01   4.8877749999999999e+01   3.3500000000000000e+01  -5.0000000000000000e+02
   6.3400000000000001e-01   4.8911000000000001e+01   3.3000000000000000e+01  -5.0000000000000000e+02
   6.3500000000000001e-01   4.8943750000000001e+01   3.2500000000000000e+01  -5.0000000000000000e+02
   6.3600000000000001e-01   4.8975999999999999e+01   3.2000000000000000e+01  -5.0000000000000000e+02
   6.3700000000000001e-01   4.9007750000000001e+01   3.1500000000000000e+01  -5.0000000000000000e+02
   6.3800000000000001e-01   4.9039000000000001e+01   3.1000000000000000e+01  -5.0000000000000000e+02
   6.3900000000000001e-01   4.9069749999999999e+01   3.0500000000000000e+01  -5.0000000000000000e+02
   6.4000000000000001e-01   4.9100000000000001e+01   3.0000000000000000e+01  -5.0000000000000000e+02
   6.4100000000000001e-01   4.9129750000000001e+01   2.9500000000000000e+01  -5.0000000000000000e+02
   6.4200000000000002e-01   4.9158999999999999e+01   2.9000000000000000e+01  -5.0000000000000000e+02
   6.4300000000000002e-01   4.9187750000000001e+01   2.8500000000000000e+01  -5.0000000000000000e+02
   6.4400000000000002e-01   4.9216000000000001e+01   2.8000000000000000e+01  -5.0000000000000000e+02
   6.4500000000000002e-01   4.9243750000000006e+01   2.7500000000000000e+01  -5.0000000000000000e+02
   6.4600000000000002e-01   4.9271000000000001e+01   2.7000000000000000e+01  -5.0000000000000000e+02
   6.4700000000000002e-01   4.9297750000000001e+01   2.6499999999999986e+01  -5.0000000000000000e+02
   6.4800000000000002e-01   4.9323999999999998e+01   2.5999999999999986e+01  -5.0000000000000000e+02
   6.4900000000000002e-01   4.9349750000000000e+01   2.5500000000000000e+01  -5.0000000000000000e+02
   6.5000000000000002e-01   4.9375000000000000e+01   2.5000000000000000e+01  -5.0000000000000000e+02
   6.5100000000000002e-01   4.9399749999999997e+01   2.4500000000000000e+01  -5.0000000000000000e+02
   6.5200000000000002e-01   4.9423999999999999e+01   2.3999999999999986e+01  -5.0000000000000000e+02
   6.5300000000000002e-01   4.9447749999999999e+01   2.3499999999999986e+01  -5.0000000000000000e+02
   6.5400000000000003e-01   4.9471000000000004e+01   2.3000000000000000e+01  -5.0000000000000000e+02
   6.5500000000000003e-01   4.9493750000000006e+01   2.2499999999999986e+01  -5.0000000000000000e+02
   6.5600000000000003e-01   4.9516000000000005e+01   2.1999999999999986e+01  -5.0000000000000000e+02
   6.5700000000000003e-01   4.9537750000000003e+01   2.1500000000000014e+01  -5.0000000000000000e+02
   6.5799999999999992e-01   4.9558999999999997e+01   2.1000000000000000e+01  -5.0000000000000000e+02
   6.5900000000000003e-01   4.9579750000000004e+01   2.0500000000000000e+01  -5.0000000000000000e+02
   6.5999999999999992e-01   4.9600000000000001e+01   2.0000000000000000e+01  -5.0000000000000000e+02
   6.6100000000000003e-01   4.9619749999999996e+01   1.9500000000000000e+01  -5.0000000000000000e+02
   6.6199999999999992e-01   4.9638999999999996e+01   1.9000000000000014e+01  -5.0000000000000000e+02
   6.6300000000000003e-01   4.9657750000000000e+01   1.8500000000000000e+01  -5.0000000000000000e+02
   6.6399999999999992e-01   4.9676000000000002e+01   1.8000000000000000e+01  -5.0000000000000000e+02
   6.6500000000000004e-01   4.9693750000000001e+01   1.7500000000000000e+01  -5.0000000000000000e+02
   6.6599999999999993e-01   4.9710999999999999e+01   1.7000000000000000e+01  -5.0000000000000000e+02
   6.6700000000000004e-01   4.9727750000000000e+01   1.6500000000000014e+01  -5.0000000000000000e+02
   6.6799999999999993e-01   4.9744000000000000e+01   1.6000000000000000e+01  -5.0000000000000000e+02
   6.6900000000000004e-01   4.9759749999999997e+01   1.5500000000000000e+01  -5.0000000000000000e+02
   6.6999999999999993e-01   4.9774999999999999e+01   1.5000000000000000e+01  -5.0000000000000000e+02
   6.7100000000000004e-01   4.9789749999999998e+01   1.4500000000000000e+01  -5.0000000000000000e+02
   6.7199999999999993e-01   4.9804000000000002e+01   1.3999999999999986e+01  -5.0000000000000000e+02
   6.7300000000000004e-01   4.9817750000000004e+01   1.3500000000000000e+01  -5.0000000000000000e+02
   6.7399999999999993e-01   4.9831000000000003e+01   1.3000000000000000e+01  -5.0000000000000000e+02
   6.7500000000000004e-01   4.9843750000000000e+01   1.2500000000000000e+01  -5.0000000000000000e+02
   6.7599999999999993e-01   4.9856000000000002e+01   1.2000000000000000e+01  -5.0000000000000000e+02
   6.7700000000000005e-01   4.9867750000000001e+01   1.1499999999999986e+01  -5.0000000000000000e+02
   6.7799999999999994e-01   4.9878999999999998e+01   1.1000000000000000e+01  -5.0000000000000000e+02
   6.7900000000000005e-01   4.9889749999999999e+01   1.0500000000000000e+01  -5.0000000000000000e+02
   6.7999999999999994e-01   4.9900000000000006e+01   9.9999999999999858e+00  -5.0000000000000000e+02
   6.8100000000000005e-01   4.9909750000000003e+01   9.5000000000000000e+00  -5.0000000000000000e+02
   6.8199999999999994e-01   4.9918999999999997e+01   9.0000000000000142e+00  -5.0000000000000000e+02
   6.8300000000000005e-01   4.9927750000000003e+01   8.5000000000000000e+00  -5.0000000000000000e+02
   6.8399999999999994e-01   4.9936000000000000e+01   8.0000000000000142e+00  -5.0000000000000000e+02
   6.8500000000000005e-01   4.9943750000000001e+01   7.5000000000000000e+00  -5.0000000000000000e+02
   6.8599999999999994e-01   4.9951000000000001e+01   7.0000000000000000e+00  -5.0000000000000000e+02
   6.8700000000000006e-01   4.9957750000000004e+01   6.5000000000000142e+00  -5.0000000000000000e+02
   6.8799999999999994e-01   4.9963999999999999e+01   6.0000000000000000e+00  -5.0000000000000000e+02
   6.8900000000000006e-01   4.9969749999999998e+01   5.5000000000000142e+00  -5.0000000000000000e+02
   6.8999999999999995e-01   4.9975000000000001e+01   5.0000000000000000e+00  -5.0000000000000000e+02
   6.9100000000000006e-01   4.9979750000000003e+01   4.5000000000000000e+00  -5.0000000000000000e+02
   6.9199999999999995e-01   4.9984000000000002e+01   4.0000000000000142e+00  -5.0000000000000000e+02
   6.9300000000000006e-01   4.9987749999999998e+01   3.5000000000000000e+00  -5.0000000000000000e+02
   6.9399999999999995e-01   4.9991000000000000e+01   3.0000000000000000e+00  -5.0000000000000000e+02
   6.9500000000000006e-01   4.9993749999999999e+01   2.5000000000000000e+00  -5.0000000000000000e+02
   6.9599999999999995e-01   4.9996000000000002e+01   2.0000000000000000e+00  -5.0000000000000000e+02
   6.9700000000000006e-01   4.9997749999999996e+01   1.5000000000000142e+00  -5.0000000000000000e+02
   6.9799999999999995e-01   4.9999000000000002e+01   1.0000000000000000e+00  -5.0000000000000000e+02
   6.9900000000000007e-01   4.9999749999999999e+01   5.0000000000000000e-01  -5.0000000000000000e+02
   6.9999999999999996e-01   5.0000000000000000e+01   0.0000000000000000e+00  -5.0000000000000000e+02
